Skewness report
================

### Is skewness unique to an element of the FS?

    ## # A tibble: 48 x 5
    ##     year season treatment n_elements n_skews
    ##    <int> <chr>  <chr>          <int>   <int>
    ##  1  1986 summer control        10001   10001
    ##  2  1986 winter control        10001   10001
    ##  3  1988 summer control        10001   10001
    ##  4  1988 winter control        10001   10001
    ##  5  1991 summer control        10001   10001
    ##  6  1991 winter control        10001   10001
    ##  7  1994 summer control        10001   10001
    ##  8  1994 winter control        10001   10001
    ##  9  1995 summer control        10001   10001
    ## 10  1995 winter control        10001   10001
    ## # … with 38 more rows
…
