…
``` r
small_years_dat
```

    ## # A tibble: 38 x 4
    ##     year season  nspp  nind
    ##    <int> <chr>  <int> <int>
    ##  1  1986 summer    11  3204
    ##  2  1986 winter    23  6385
    ##  3  1988 summer    11  5110
    ##  4  1988 winter    23  9922
    ##  5  1991 summer    24  9953
    ##  6  1991 winter    28  1690
    ##  7  1994 summer    10    60
    ##  8  1994 winter    27  4742
    ##  9  1995 summer    17   704
    ## 10  1995 winter    33 11869
    ## # … with 28 more rows
…
